62

Co 0.286160 1.737730 1.480798
 N 1.063008 2.385112 -0.113432
 N 2.035397 1.453844 2.275163
 N -0.706810 1.276408 3.088977
 N -1.320962 2.030743 0.516663
 N 0.277971 4.602812 2.460138
 N 0.186763 -0.319808 0.857983
 N -0.856943 -2.285803 0.639540
 C 0.285302 3.492472 2.085193
 C 2.399969 3.222393 -1.826313
 C 0.949484 3.088489 -2.359934
 C 0.136382 3.056957 -1.058428
 C -1.185893 2.305304 -0.937720
 C -2.496272 3.035159 -1.289843
 C -3.480755 2.564774 -0.189306
 C -2.553089 2.158877 0.938798
 C -2.934850 1.915012 2.288330
 C -2.058975 1.517371 3.270412
 C -2.434728 1.298614 4.720386
 C -1.175748 0.647964 5.322411
 C -0.135949 0.856672 4.244140
 C 1.226635 0.650275 4.432654
 C 2.232853 0.960768 3.520357
 C 3.705817 0.800199 3.821270
 C 4.386861 1.491534 2.627370
 C 3.242965 1.764194 1.673788
 C 3.400084 2.252130 0.397589
 C 2.312042 2.574468 -0.457404
 C 2.351948 -1.059281 -0.291418
 C 2.951357 -2.158096 -0.903757
 C 2.284185 -3.394608 -1.032760
 C 0.989503 -3.571179 -0.550822
 C 1.048362 -1.213291 0.202594
 C 0.393697 -2.465485 0.062110
 C -0.926555 -1.002843 1.092641
 H 2.693960 4.279122 -1.708172
 H -1.101080 1.335482 -1.461197
 H -2.848437 2.809090 -2.303399
 H 1.542247 0.283991 5.409833
 H 3.967803 1.243847 4.791239
 H 2.879970 -0.111469 -0.199338
 H 0.470012 -4.525050 -0.650100
 H -1.807960 -0.606054 1.586381
 H 3.154468 2.743947 -2.465668 
H 0.661141 3.910976 -3.025551
 H 0.831377 2.139383 -2.905637
 H -0.023526 4.082984 -0.676369
 H -2.345616 4.122690 -1.214256
 H -4.188681 3.343713 0.125886
 H -4.080006 1.695856 -0.510774
 H -3.976177 2.078160 2.564241
 H -2.639719 2.275263 5.186065
 H -3.343579 0.691772 4.825554
 H -0.864422 1.093732 6.275813
 H -1.313412 -0.430793 5.501073
 H 3.955743 -0.270956 3.879350
 H 5.170639 0.883041 2.156554
 H 4.850130 2.445830 2.921104
 H 4.411845 2.446530 0.042365
 H 3.964466 -2.061917 -1.295766
 H 2.790980 -4.228555 -1.519407
 H -1.592695 -2.981317 0.718522
